Checklist_for_Data_Cleansing
…
If we only want to center (or something similar), we could do

data %>% 
  mutate_if(is.numeric, funs(. - mean(.)))

## # A tibble: 59,946 x 31
##            age      body_type              diet     drinks     drugs
##          <dbl>          <chr>             <chr>      <chr>     <chr>
## 1  -10.3402896 a little extra strictly anything   socially     never
## 2    2.6597104        average      mostly other      often sometimes
## 3    5.6597104           thin          anything   socially      <NA>
## 4   -9.3402896           thin        vegetarian   socially      <NA>
## 5   -3.3402896       athletic              <NA>   socially     never
## 6   -3.3402896        average   mostly anything   socially      <NA>
## 7   -0.3402896            fit strictly anything   socially     never
## 8   -1.3402896        average   mostly anything   socially     never
## 9   -8.3402896           <NA> strictly anything   socially      <NA>
## 10   4.6597104       athletic   mostly anything not at all     never
## # ... with 59,936 more rows, and 26 more variables: education <chr>,
## #   essay0 <chr>, essay1 <chr>, essay2 <chr>, essay3 <chr>, essay4 <chr>,
## #   essay5 <chr>, essay6 <chr>, essay7 <chr>, essay8 <chr>, essay9 <chr>,
## #   ethnicity <chr>, height <dbl>, income <dbl>, job <chr>,
## #   last_online <chr>, location <chr>, offspring <chr>, orientation <chr>,
## #   pets <chr>, religion <chr>, sex <chr>, sign <chr>, smokes <chr>,
## #   speaks <chr>, status <chr>
