…
With this large number of missings, we probably will not find an easy solution. Skipping cases will hurt, but imputating may also not be appropriate. Ah, now I know: Let's just leave it as it is for the moment :-)

Or, at least let's remember which columns have more than, say, 10%, missings:

``` r
cols_with_some_NA <- round(colMeans(is.na(data)),2)
cols_with_too_many_NA <- cols_with_some_NA[cols_with_some_NA > .1]

# alterntively:
data %>% 
  select_if(function(col) mean(is.na(col)) < .1)
```

    ## # A tibble: 59,946 x 14
    ##      age      body_type     drinks
    ##    <int>          <chr>      <chr>
    ## 1     22 a little extra   socially
    ## 2     35        average      often
    ## 3     38           thin   socially
    ## 4     23           thin   socially
    ## 5     29       athletic   socially
    ## 6     29        average   socially
    ## 7     32            fit   socially
    ## 8     31        average   socially
    ## 9     24           <NA>   socially
    ## 10    37       athletic not at all
    ## # ... with 59,936 more rows, and 11 more variables: essay0 <chr>,
    ## #   ethnicity <chr>, height <int>, income <int>, last_online <chr>,
    ## #   location <chr>, orientation <chr>, sex <chr>, smokes <chr>,
    ## #   speaks <chr>, status <chr>
…
If we only want to center (or something similar), we could do

``` r
data %>% 
  mutate_if(is.numeric, funs(. - mean(.)))
```

    ## # A tibble: 59,946 x 31
    ##            age      body_type              diet     drinks     drugs
    ##          <dbl>          <chr>             <chr>      <chr>     <chr>
    ## 1  -10.3402896 a little extra strictly anything   socially     never
    ## 2    2.6597104        average      mostly other      often sometimes
    ## 3    5.6597104           thin          anything   socially      <NA>
    ## 4   -9.3402896           thin        vegetarian   socially      <NA>
    ## 5   -3.3402896       athletic              <NA>   socially     never
    ## 6   -3.3402896        average   mostly anything   socially      <NA>
    ## 7   -0.3402896            fit strictly anything   socially     never
    ## 8   -1.3402896        average   mostly anything   socially     never
    ## 9   -8.3402896           <NA> strictly anything   socially      <NA>
    ## 10   4.6597104       athletic   mostly anything not at all     never
    ## # ... with 59,936 more rows, and 26 more variables: education <chr>,
    ## #   essay0 <chr>, essay1 <chr>, essay2 <chr>, essay3 <chr>, essay4 <chr>,
    ## #   essay5 <chr>, essay6 <chr>, essay7 <chr>, essay8 <chr>, essay9 <chr>,
    ## #   ethnicity <chr>, height <dbl>, income <dbl>, job <chr>,
    ## #   last_online <chr>, location <chr>, offspring <chr>, orientation <chr>,
    ## #   pets <chr>, religion <chr>, sex <chr>, sign <chr>, smokes <chr>,
    ## #   speaks <chr>, status <chr>
…
